stack_machine/testbench.vcd
$date
    Wed Nov 28 11:44:15 2018
$end
$version
    MyHDL 0.10
$end
$timescale
    1ns
$end

$scope module testbench $end
$var reg 1 ! err_flag $end
$var reg 1 " reset_n $end
$var reg 1 # clock $end
$var reg 18 $ data_in $end
$var reg 18 % stack_top $end
$var reg 1 & stack_empty $end
$var reg 1 ' pop $end
$var reg 1 ( push $end
$var reg 8 ) char_in $end
$var reg 1 * alu_done $end
$var reg 1 + alu_go $end
$var reg 16 , alu_out $end
$var reg 16 - alu_b $end
$var reg 16 . alu_a $end
$var reg 16 / alu_op $end
$var reg 16 0 ret $end
$var reg 1 1 cu_go $end
$var reg 1 2 cu_done $end
$var real 1 3 i $end
$scope module lexer0 $end
$var reg 1 # clock $end
$var real 1 4 state_next $end
$var real 1 5 state $end
$var reg 1 6 is_op $end
$var reg 1 7 is_digit $end
$var reg 1 8 sign $end
$var reg 16 9 result $end
$var reg 2 : inst_mask $end
$var reg 16 ; inst_desc $end
$var reg 18 < inst $end
$var reg 18 $ stack_in $end
$var reg 1 " reset_n $end
$var reg 1 ( push $end
$var reg 1 ! err_flag $end
$var reg 8 ) char_in $end
$scope module dec_to_bin_converter0 $end
$var reg 1 # clock $end
$var reg 8 ) char_in $end
$var reg 1 = err_st $end
$var reg 4 > digit $end
$var reg 3 ? ctr $end
$var reg 1 8 sign $end
$var reg 16 9 result $end
$var reg 1 " reset_n $end
$var reg 1 ! err_flag $end
$var reg 1 7 enable $end
$scope module digit_buffer $end
$var real 1 @ digit_buffer(0) $end
$var real 1 A digit_buffer(1) $end
$var real 1 B digit_buffer(2) $end
$var real 1 C digit_buffer(3) $end
$var real 1 D digit_buffer(4) $end
$var real 1 E digit_buffer(5) $end
$upscope $end
$upscope $end
$scope module char_lut0 $end
$var reg 1 6 is_op $end
$var reg 1 7 is_digit $end
$var reg 8 ) char_in $end
$scope module mask_table $end
$var reg 2 F mask_table(0) $end
$var reg 2 G mask_table(1) $end
$var reg 2 H mask_table(2) $end
$var reg 2 I mask_table(3) $end
$var reg 2 J mask_table(4) $end
$var reg 2 K mask_table(5) $end
$var reg 2 L mask_table(6) $end
$var reg 2 M mask_table(7) $end
$var reg 2 N mask_table(8) $end
$var reg 2 O mask_table(9) $end
$var reg 2 P mask_table(10) $end
$var reg 2 Q mask_table(11) $end
$var reg 2 R mask_table(12) $end
$var reg 2 S mask_table(13) $end
$var reg 2 T mask_table(14) $end
$var reg 2 U mask_table(15) $end
$var reg 2 V mask_table(16) $end
$var reg 2 W mask_table(17) $end
$var reg 2 X mask_table(18) $end
$var reg 2 Y mask_table(19) $end
$var reg 2 Z mask_table(20) $end
$var reg 2 [ mask_table(21) $end
$var reg 2 \ mask_table(22) $end
$var reg 2 ] mask_table(23) $end
$var reg 2 ^ mask_table(24) $end
$var reg 2 _ mask_table(25) $end
$var reg 2 ` mask_table(26) $end
$var reg 2 a mask_table(27) $end
$var reg 2 b mask_table(28) $end
$var reg 2 c mask_table(29) $end
$var reg 2 d mask_table(30) $end
$var reg 2 e mask_table(31) $end
$var reg 2 f mask_table(32) $end
$var reg 2 g mask_table(33) $end
$var reg 2 h mask_table(34) $end
$var reg 2 i mask_table(35) $end
$var reg 2 j mask_table(36) $end
$var reg 2 k mask_table(37) $end
$var reg 2 l mask_table(38) $end
$var reg 2 m mask_table(39) $end
$var reg 2 n mask_table(40) $end
$var reg 2 o mask_table(41) $end
$var real 1 p mask_table(42) $end
$var real 1 q mask_table(43) $end
$var reg 2 r mask_table(44) $end
$var real 1 s mask_table(45) $end
$var reg 2 t mask_table(46) $end
$var real 1 u mask_table(47) $end
$var real 1 v mask_table(48) $end
$var real 1 w mask_table(49) $end
$var real 1 x mask_table(50) $end
$var real 1 y mask_table(51) $end
$var real 1 z mask_table(52) $end
$var real 1 { mask_table(53) $end
$var real 1 | mask_table(54) $end
$var real 1 } mask_table(55) $end
$var real 1 ~ mask_table(56) $end
$var real 1 "! mask_table(57) $end
$var reg 2 "" mask_table(58) $end
$var reg 2 "# mask_table(59) $end
$var reg 2 "$ mask_table(60) $end
$var reg 2 "% mask_table(61) $end
$var reg 2 "& mask_table(62) $end
$var reg 2 "' mask_table(63) $end
$var reg 2 "( mask_table(64) $end
$var reg 2 ") mask_table(65) $end
$var reg 2 "* mask_table(66) $end
$var reg 2 "+ mask_table(67) $end
$var reg 2 ", mask_table(68) $end
$var reg 2 "- mask_table(69) $end
$var reg 2 ". mask_table(70) $end
$var reg 2 "/ mask_table(71) $end
$var reg 2 "0 mask_table(72) $end
$var reg 2 "1 mask_table(73) $end
$var reg 2 "2 mask_table(74) $end
$var reg 2 "3 mask_table(75) $end
$var reg 2 "4 mask_table(76) $end
$var reg 2 "5 mask_table(77) $end
$var reg 2 "6 mask_table(78) $end
$var reg 2 "7 mask_table(79) $end
$var reg 2 "8 mask_table(80) $end
$var reg 2 "9 mask_table(81) $end
$var reg 2 ": mask_table(82) $end
$var reg 2 "; mask_table(83) $end
$var reg 2 "< mask_table(84) $end
$var reg 2 "= mask_table(85) $end
$var reg 2 "> mask_table(86) $end
$var reg 2 "? mask_table(87) $end
$var reg 2 "@ mask_table(88) $end
$var reg 2 "A mask_table(89) $end
$var reg 2 "B mask_table(90) $end
$var reg 2 "C mask_table(91) $end
$var reg 2 "D mask_table(92) $end
$var reg 2 "E mask_table(93) $end
$var reg 2 "F mask_table(94) $end
$var reg 2 "G mask_table(95) $end
$var reg 2 "H mask_table(96) $end
$var reg 2 "I mask_table(97) $end
$var reg 2 "J mask_table(98) $end
$var reg 2 "K mask_table(99) $end
$var reg 2 "L mask_table(100) $end
$var reg 2 "M mask_table(101) $end
$var reg 2 "N mask_table(102) $end
$var reg 2 "O mask_table(103) $end
$var reg 2 "P mask_table(104) $end
$var reg 2 "Q mask_table(105) $end
$var reg 2 "R mask_table(106) $end
$var reg 2 "S mask_table(107) $end
$var reg 2 "T mask_table(108) $end
$var reg 2 "U mask_table(109) $end
$var reg 2 "V mask_table(110) $end
$var reg 2 "W mask_table(111) $end
$var reg 2 "X mask_table(112) $end
$var reg 2 "Y mask_table(113) $end
$var reg 2 "Z mask_table(114) $end
$var reg 2 "[ mask_table(115) $end
$var reg 2 "\ mask_table(116) $end
$var reg 2 "] mask_table(117) $end
$var reg 2 "^ mask_table(118) $end
$var reg 2 "_ mask_table(119) $end
$var reg 2 "` mask_table(120) $end
$var reg 2 "a mask_table(121) $end
$var reg 2 "b mask_table(122) $end
$var reg 2 "c mask_table(123) $end
$var reg 2 "d mask_table(124) $end
$var reg 2 "e mask_table(125) $end
$var reg 2 "f mask_table(126) $end
$var reg 2 "g mask_table(127) $end
$upscope $end
$upscope $end
$upscope $end
$scope module program_stack0 $end
$var reg 1 # clock $end
$var reg 1 ! err_flag $end
$var reg 8 "h stack_ptr $end
$var reg 8 "i size_ctr $end
$var reg 18 % stack_top $end
$var reg 1 " reset_n $end
$var reg 1 ( push $end
$var reg 1 ' pop $end
$var reg 1 & empty $end
$var reg 18 $ data_in $end
$scope module stack $end
$var reg 18 "j stack(0) $end
$var reg 18 "k stack(1) $end
$var reg 18 "l stack(2) $end
$var reg 18 "m stack(3) $end
$var reg 18 "n stack(4) $end
$var reg 18 "o stack(5) $end
$var reg 18 "p stack(6) $end
$var reg 18 "q stack(7) $end
$var reg 18 "r stack(8) $end
$var reg 18 "s stack(9) $end
$var reg 18 "t stack(10) $end
$var reg 18 "u stack(11) $end
$var reg 18 "v stack(12) $end
$var reg 18 "w stack(13) $end
$var reg 18 "x stack(14) $end
$var reg 18 "y stack(15) $end
$var reg 18 "z stack(16) $end
$var reg 18 "{ stack(17) $end
$var reg 18 "| stack(18) $end
$var reg 18 "} stack(19) $end
$var reg 18 "~ stack(20) $end
$var reg 18 #! stack(21) $end
$var reg 18 #" stack(22) $end
$var reg 18 ## stack(23) $end
$var reg 18 #$ stack(24) $end
$var reg 18 #% stack(25) $end
$var reg 18 #& stack(26) $end
$var reg 18 #' stack(27) $end
$var reg 18 #( stack(28) $end
$var reg 18 #) stack(29) $end
$var reg 18 #* stack(30) $end
$var reg 18 #+ stack(31) $end
$var reg 18 #, stack(32) $end
$var reg 18 #- stack(33) $end
$var reg 18 #. stack(34) $end
$var reg 18 #/ stack(35) $end
$var reg 18 #0 stack(36) $end
$var reg 18 #1 stack(37) $end
$var reg 18 #2 stack(38) $end
$var reg 18 #3 stack(39) $end
$var reg 18 #4 stack(40) $end
$var reg 18 #5 stack(41) $end
$var reg 18 #6 stack(42) $end
$var reg 18 #7 stack(43) $end
$var reg 18 #8 stack(44) $end
$var reg 18 #9 stack(45) $end
$var reg 18 #: stack(46) $end
$var reg 18 #; stack(47) $end
$var reg 18 #< stack(48) $end
$var reg 18 #= stack(49) $end
$var reg 18 #> stack(50) $end
$var reg 18 #? stack(51) $end
$var reg 18 #@ stack(52) $end
$var reg 18 #A stack(53) $end
$var reg 18 #B stack(54) $end
$var reg 18 #C stack(55) $end
$var reg 18 #D stack(56) $end
$var reg 18 #E stack(57) $end
$var reg 18 #F stack(58) $end
$var reg 18 #G stack(59) $end
$var reg 18 #H stack(60) $end
$var reg 18 #I stack(61) $end
$var reg 18 #J stack(62) $end
$var reg 18 #K stack(63) $end
$var reg 18 #L stack(64) $end
$var reg 18 #M stack(65) $end
$var reg 18 #N stack(66) $end
$var reg 18 #O stack(67) $end
$var reg 18 #P stack(68) $end
$var reg 18 #Q stack(69) $end
$var reg 18 #R stack(70) $end
$var reg 18 #S stack(71) $end
$var reg 18 #T stack(72) $end
$var reg 18 #U stack(73) $end
$var reg 18 #V stack(74) $end
$var reg 18 #W stack(75) $end
$var reg 18 #X stack(76) $end
$var reg 18 #Y stack(77) $end
$var reg 18 #Z stack(78) $end
$var reg 18 #[ stack(79) $end
$var reg 18 #\ stack(80) $end
$var reg 18 #] stack(81) $end
$var reg 18 #^ stack(82) $end
$var reg 18 #_ stack(83) $end
$var reg 18 #` stack(84) $end
$var reg 18 #a stack(85) $end
$var reg 18 #b stack(86) $end
$var reg 18 #c stack(87) $end
$var reg 18 #d stack(88) $end
$var reg 18 #e stack(89) $end
$var reg 18 #f stack(90) $end
$var reg 18 #g stack(91) $end
$var reg 18 #h stack(92) $end
$var reg 18 #i stack(93) $end
$var reg 18 #j stack(94) $end
$var reg 18 #k stack(95) $end
$var reg 18 #l stack(96) $end
$var reg 18 #m stack(97) $end
$var reg 18 #n stack(98) $end
$var reg 18 #o stack(99) $end
$var reg 18 #p stack(100) $end
$var reg 18 #q stack(101) $end
$var reg 18 #r stack(102) $end
$var reg 18 #s stack(103) $end
$var reg 18 #t stack(104) $end
$var reg 18 #u stack(105) $end
$var reg 18 #v stack(106) $end
$var reg 18 #w stack(107) $end
$var reg 18 #x stack(108) $end
$var reg 18 #y stack(109) $end
$var reg 18 #z stack(110) $end
$var reg 18 #{ stack(111) $end
$var reg 18 #| stack(112) $end
$var reg 18 #} stack(113) $end
$var reg 18 #~ stack(114) $end
$var reg 18 $! stack(115) $end
$var reg 18 $" stack(116) $end
$var reg 18 $# stack(117) $end
$var reg 18 $$ stack(118) $end
$var reg 18 $% stack(119) $end
$var reg 18 $& stack(120) $end
$var reg 18 $' stack(121) $end
$var reg 18 $( stack(122) $end
$var reg 18 $) stack(123) $end
$var reg 18 $* stack(124) $end
$var reg 18 $+ stack(125) $end
$var reg 18 $, stack(126) $end
$var reg 18 $- stack(127) $end
$var real 1 $. stack(128) $end
$upscope $end
$upscope $end
$scope module alu0 $end
$var reg 1 " reset_n $end
$var reg 1 # clock $end
$var reg 1 + go $end
$var reg 1 * done $end
$var reg 16 , alu_out $end
$var reg 16 / alu_op $end
$var reg 16 - alu_b $end
$var reg 16 . alu_a $end
$upscope $end
$scope module control_unit0 $end
$var reg 1 # clock $end
$var reg 18 % pr_stack_top $end
$var real 1 $/ state $end
$var reg 8 $0 stack_ptr $end
$var reg 16 0 ret $end
$var reg 1 " reset_n $end
$var reg 1 ' pr_stack_pop $end
$var reg 1 & pr_stack_empty $end
$var reg 2 $1 mask $end
$var reg 1 1 go $end
$var reg 1 2 done $end
$var reg 16 $2 desc $end
$var reg 16 , alu_out $end
$var reg 16 / alu_op $end
$var reg 1 + alu_go $end
$var reg 1 * alu_done $end
$var reg 16 - alu_b $end
$var reg 16 . alu_a $end
$scope module stack $end
$var reg 16 $3 stack(0) $end
$var reg 16 $4 stack(1) $end
$var reg 16 $5 stack(2) $end
$var reg 16 $6 stack(3) $end
$var reg 16 $7 stack(4) $end
$var reg 16 $8 stack(5) $end
$var reg 16 $9 stack(6) $end
$var reg 16 $: stack(7) $end
$var reg 16 $; stack(8) $end
$var reg 16 $< stack(9) $end
$var reg 16 $= stack(10) $end
$var reg 16 $> stack(11) $end
$var reg 16 $? stack(12) $end
$var reg 16 $@ stack(13) $end
$var reg 16 $A stack(14) $end
$var reg 16 $B stack(15) $end
$var reg 16 $C stack(16) $end
$var reg 16 $D stack(17) $end
$var reg 16 $E stack(18) $end
$var reg 16 $F stack(19) $end
$var reg 16 $G stack(20) $end
$var reg 16 $H stack(21) $end
$var reg 16 $I stack(22) $end
$var reg 16 $J stack(23) $end
$var reg 16 $K stack(24) $end
$var reg 16 $L stack(25) $end
$var reg 16 $M stack(26) $end
$var reg 16 $N stack(27) $end
$var reg 16 $O stack(28) $end
$var reg 16 $P stack(29) $end
$var reg 16 $Q stack(30) $end
$var reg 16 $R stack(31) $end
$var reg 16 $S stack(32) $end
$var reg 16 $T stack(33) $end
$var reg 16 $U stack(34) $end
$var reg 16 $V stack(35) $end
$var reg 16 $W stack(36) $end
$var reg 16 $X stack(37) $end
$var reg 16 $Y stack(38) $end
$var reg 16 $Z stack(39) $end
$var reg 16 $[ stack(40) $end
$var reg 16 $\ stack(41) $end
$var reg 16 $] stack(42) $end
$var reg 16 $^ stack(43) $end
$var reg 16 $_ stack(44) $end
$var reg 16 $` stack(45) $end
$var reg 16 $a stack(46) $end
$var reg 16 $b stack(47) $end
$var reg 16 $c stack(48) $end
$var reg 16 $d stack(49) $end
$var reg 16 $e stack(50) $end
$var reg 16 $f stack(51) $end
$var reg 16 $g stack(52) $end
$var reg 16 $h stack(53) $end
$var reg 16 $i stack(54) $end
$var reg 16 $j stack(55) $end
$var reg 16 $k stack(56) $end
$var reg 16 $l stack(57) $end
$var reg 16 $m stack(58) $end
$var reg 16 $n stack(59) $end
$var reg 16 $o stack(60) $end
$var reg 16 $p stack(61) $end
$var reg 16 $q stack(62) $end
$var reg 16 $r stack(63) $end
$var reg 16 $s stack(64) $end
$var reg 16 $t stack(65) $end
$var reg 16 $u stack(66) $end
$var reg 16 $v stack(67) $end
$var reg 16 $w stack(68) $end
$var reg 16 $x stack(69) $end
$var reg 16 $y stack(70) $end
$var reg 16 $z stack(71) $end
$var reg 16 ${ stack(72) $end
$var reg 16 $| stack(73) $end
$var reg 16 $} stack(74) $end
$var reg 16 $~ stack(75) $end
$var reg 16 %! stack(76) $end
$var reg 16 %" stack(77) $end
$var reg 16 %# stack(78) $end
$var reg 16 %$ stack(79) $end
$var reg 16 %% stack(80) $end
$var reg 16 %& stack(81) $end
$var reg 16 %' stack(82) $end
$var reg 16 %( stack(83) $end
$var reg 16 %) stack(84) $end
$var reg 16 %* stack(85) $end
$var reg 16 %+ stack(86) $end
$var reg 16 %, stack(87) $end
$var reg 16 %- stack(88) $end
$var reg 16 %. stack(89) $end
$var reg 16 %/ stack(90) $end
$var reg 16 %0 stack(91) $end
$var reg 16 %1 stack(92) $end
$var reg 16 %2 stack(93) $end
$var reg 16 %3 stack(94) $end
$var reg 16 %4 stack(95) $end
$var reg 16 %5 stack(96) $end
$var reg 16 %6 stack(97) $end
$var reg 16 %7 stack(98) $end
$var reg 16 %8 stack(99) $end
$var reg 16 %9 stack(100) $end
$var reg 16 %: stack(101) $end
$var reg 16 %; stack(102) $end
$var reg 16 %< stack(103) $end
$var reg 16 %= stack(104) $end
$var reg 16 %> stack(105) $end
$var reg 16 %? stack(106) $end
$var reg 16 %@ stack(107) $end
$var reg 16 %A stack(108) $end
$var reg 16 %B stack(109) $end
$var reg 16 %C stack(110) $end
$var reg 16 %D stack(111) $end
$var reg 16 %E stack(112) $end
$var reg 16 %F stack(113) $end
$var reg 16 %G stack(114) $end
$var reg 16 %H stack(115) $end
$var reg 16 %I stack(116) $end
$var reg 16 %J stack(117) $end
$var reg 16 %K stack(118) $end
$var reg 16 %L stack(119) $end
$var reg 16 %M stack(120) $end
$var reg 16 %N stack(121) $end
$var reg 16 %O stack(122) $end
$var reg 16 %P stack(123) $end
$var reg 16 %Q stack(124) $end
$var reg 16 %R stack(125) $end
$var reg 16 %S stack(126) $end
$var reg 16 %T stack(127) $end
$var reg 16 %U stack(128) $end
$var reg 16 %V stack(129) $end
$upscope $end
$upscope $end
$upscope $end

$enddefinitions $end
$dumpvars
0!
1"
0#
b000000000000000000 $
b000000000000000000 %
0&
0'
0(
b00100000 )
0*
0+
b0000000000000000 ,
b0000000000000000 -
b0000000000000000 .
b0000000000000000 /
b0000000000000000 0
01
02
s0x0 3
sST0 4
sST0 5
06
07
08
b0000000000000000 9
b00 :
b0000000000000000 ;
b000000000000000000 <
0=
b0000 >
b000 ?
s0x0 @
s0x0 A
s0x0 B
s0x0 C
s0x0 D
s0x0 E
b00 F
b00 G
b00 H
b00 I
b00 J
b00 K
b00 L
b00 M
b00 N
b00 O
b00 P
b00 Q
b00 R
b00 S
b00 T
b00 U
b00 V
b00 W
b00 X
b00 Y
b00 Z
b00 [
b00 \
b00 ]
b00 ^
b00 _
b00 `
b00 a
b00 b
b00 c
b00 d
b00 e
b00 f
b00 g
b00 h
b00 i
b00 j
b00 k
b00 l
b00 m
b00 n
b00 o
s0x1 p
s0x1 q
b00 r
s0x1 s
b00 t
s0x1 u
s0x2 v
s0x2 w
s0x2 x
s0x2 y
s0x2 z
s0x2 {
s0x2 |
s0x2 }
s0x2 ~
s0x2 "!
b00 ""
b00 "#
b00 "$
b00 "%
b00 "&
b00 "'
b00 "(
b00 ")
b00 "*
b00 "+
b00 ",
b00 "-
b00 ".
b00 "/
b00 "0
b00 "1
b00 "2
b00 "3
b00 "4
b00 "5
b00 "6
b00 "7
b00 "8
b00 "9
b00 ":
b00 ";
b00 "<
b00 "=
b00 ">
b00 "?
b00 "@
b00 "A
b00 "B
b00 "C
b00 "D
b00 "E
b00 "F
b00 "G
b00 "H
b00 "I
b00 "J
b00 "K
b00 "L
b00 "M
b00 "N
b00 "O
b00 "P
b00 "Q
b00 "R
b00 "S
b00 "T
b00 "U
b00 "V
b00 "W
b00 "X
b00 "Y
b00 "Z
b00 "[
b00 "\
b00 "]
b00 "^
b00 "_
b00 "`
b00 "a
b00 "b
b00 "c
b00 "d
b00 "e
b00 "f
b00 "g
b10000000 "h
b00000000 "i
b000000000000000000 "j
b000000000000000000 "k
b000000000000000000 "l
b000000000000000000 "m
b000000000000000000 "n
b000000000000000000 "o
b000000000000000000 "p
b000000000000000000 "q
b000000000000000000 "r
b000000000000000000 "s
b000000000000000000 "t
b000000000000000000 "u
b000000000000000000 "v
b000000000000000000 "w
b000000000000000000 "x
b000000000000000000 "y
b000000000000000000 "z
b000000000000000000 "{
b000000000000000000 "|
b000000000000000000 "}
b000000000000000000 "~
b000000000000000000 #!
b000000000000000000 #"
b000000000000000000 ##
b000000000000000000 #$
b000000000000000000 #%
b000000000000000000 #&
b000000000000000000 #'
b000000000000000000 #(
b000000000000000000 #)
b000000000000000000 #*
b000000000000000000 #+
b000000000000000000 #,
b000000000000000000 #-
b000000000000000000 #.
b000000000000000000 #/
b000000000000000000 #0
b000000000000000000 #1
b000000000000000000 #2
b000000000000000000 #3
b000000000000000000 #4
b000000000000000000 #5
b000000000000000000 #6
b000000000000000000 #7
b000000000000000000 #8
b000000000000000000 #9
b000000000000000000 #:
b000000000000000000 #;
b000000000000000000 #<
b000000000000000000 #=
b000000000000000000 #>
b000000000000000000 #?
b000000000000000000 #@
b000000000000000000 #A
b000000000000000000 #B
b000000000000000000 #C
b000000000000000000 #D
b000000000000000000 #E
b000000000000000000 #F
b000000000000000000 #G
b000000000000000000 #H
b000000000000000000 #I
b000000000000000000 #J
b000000000000000000 #K
b000000000000000000 #L
b000000000000000000 #M
b000000000000000000 #N
b000000000000000000 #O
b000000000000000000 #P
b000000000000000000 #Q
b000000000000000000 #R
b000000000000000000 #S
b000000000000000000 #T
b000000000000000000 #U
b000000000000000000 #V
b000000000000000000 #W
b000000000000000000 #X
b000000000000000000 #Y
b000000000000000000 #Z
b000000000000000000 #[
b000000000000000000 #\
b000000000000000000 #]
b000000000000000000 #^
b000000000000000000 #_
b000000000000000000 #`
b000000000000000000 #a
b000000000000000000 #b
b000000000000000000 #c
b000000000000000000 #d
b000000000000000000 #e
b000000000000000000 #f
b000000000000000000 #g
b000000000000000000 #h
b000000000000000000 #i
b000000000000000000 #j
b000000000000000000 #k
b000000000000000000 #l
b000000000000000000 #m
b000000000000000000 #n
b000000000000000000 #o
b000000000000000000 #p
b000000000000000000 #q
b000000000000000000 #r
b000000000000000000 #s
b000000000000000000 #t
b000000000000000000 #u
b000000000000000000 #v
b000000000000000000 #w
b000000000000000000 #x
b000000000000000000 #y
b000000000000000000 #z
b000000000000000000 #{
b000000000000000000 #|
b000000000000000000 #}
b000000000000000000 #~
b000000000000000000 $!
b000000000000000000 $"
b000000000000000000 $#
b000000000000000000 $$
b000000000000000000 $%
b000000000000000000 $&
b000000000000000000 $'
b000000000000000000 $(
b000000000000000000 $)
b000000000000000000 $*
b000000000000000000 $+
b000000000000000000 $,
b000000000000000000 $-
s0x20000 $.
sWAIT $/
b10000000 $0
b00 $1
b0000000000000000 $2
b0000000000000000 $3
b0000000000000000 $4
b0000000000000000 $5
b0000000000000000 $6
b0000000000000000 $7
b0000000000000000 $8
b0000000000000000 $9
b0000000000000000 $:
b0000000000000000 $;
b0000000000000000 $<
b0000000000000000 $=
b0000000000000000 $>
b0000000000000000 $?
b0000000000000000 $@
b0000000000000000 $A
b0000000000000000 $B
b0000000000000000 $C
b0000000000000000 $D
b0000000000000000 $E
b0000000000000000 $F
b0000000000000000 $G
b0000000000000000 $H
b0000000000000000 $I
b0000000000000000 $J
b0000000000000000 $K
b0000000000000000 $L
b0000000000000000 $M
b0000000000000000 $N
b0000000000000000 $O
b0000000000000000 $P
b0000000000000000 $Q
b0000000000000000 $R
b0000000000000000 $S
b0000000000000000 $T
b0000000000000000 $U
b0000000000000000 $V
b0000000000000000 $W
b0000000000000000 $X
b0000000000000000 $Y
b0000000000000000 $Z
b0000000000000000 $[
b0000000000000000 $\
b0000000000000000 $]
b0000000000000000 $^
b0000000000000000 $_
b0000000000000000 $`
b0000000000000000 $a
b0000000000000000 $b
b0000000000000000 $c
b0000000000000000 $d
b0000000000000000 $e
b0000000000000000 $f
b0000000000000000 $g
b0000000000000000 $h
b0000000000000000 $i
b0000000000000000 $j
b0000000000000000 $k
b0000000000000000 $l
b0000000000000000 $m
b0000000000000000 $n
b0000000000000000 $o
b0000000000000000 $p
b0000000000000000 $q
b0000000000000000 $r
b0000000000000000 $s
b0000000000000000 $t
b0000000000000000 $u
b0000000000000000 $v
b0000000000000000 $w
b0000000000000000 $x
b0000000000000000 $y
b0000000000000000 $z
b0000000000000000 ${
b0000000000000000 $|
b0000000000000000 $}
b0000000000000000 $~
b0000000000000000 %!
b0000000000000000 %"
b0000000000000000 %#
b0000000000000000 %$
b0000000000000000 %%
b0000000000000000 %&
b0000000000000000 %'
b0000000000000000 %(
b0000000000000000 %)
b0000000000000000 %*
b0000000000000000 %+
b0000000000000000 %,
b0000000000000000 %-
b0000000000000000 %.
b0000000000000000 %/
b0000000000000000 %0
b0000000000000000 %1
b0000000000000000 %2
b0000000000000000 %3
b0000000000000000 %4
b0000000000000000 %5
b0000000000000000 %6
b0000000000000000 %7
b0000000000000000 %8
b0000000000000000 %9
b0000000000000000 %:
b0000000000000000 %;
b0000000000000000 %<
b0000000000000000 %=
b0000000000000000 %>
b0000000000000000 %?
b0000000000000000 %@
b0000000000000000 %A
b0000000000000000 %B
b0000000000000000 %C
b0000000000000000 %D
b0000000000000000 %E
b0000000000000000 %F
b0000000000000000 %G
b0000000000000000 %H
b0000000000000000 %I
b0000000000000000 %J
b0000000000000000 %K
b0000000000000000 %L
b0000000000000000 %M
b0000000000000000 %N
b0000000000000000 %O
b0000000000000000 %P
b0000000000000000 %Q
b0000000000000000 %R
b0000000000000000 %S
b0000000000000000 %T
b0000000000000000 %U
b0000000000000000 %V
$end
b100000000000000000 %
1&
b10 $1
#10
1#
b00101000 )
s0x1 3
sOP 4
b1000 >
#20
0#
#30
1#
sOP 5
b00101011 )
s0x2 3
b1011 >
16
sERR 4
sEXPR_W 4
#40
0#
#50
1#
b00100000 )
s0x3 3
1(
b0000000000101011 ;
b11 :
sEXPR_W 5
b110000000000101011 <
06
b0000 >
b110000000000101011 $
#60
0#
#70
1#
b01111111 "h
b110000000000101011 $-
b00000001 "i
0(
b00110010 )
s0x4 3
sERR 4
b0010 >
17
b110000000000101011 %
0&
b0000000000101011 $2
b11 $1
sDIGIT 4
#80
0#
#90
1#
b00100000 )
s0x5 3
sDIGIT 5
b001 ?
s0x2 @
b0000000000000010 9
07
b0000 >
sEXPR_W 4
#100
0#
#110
1#
b000 ?
1(
b0000000000000010 ;
b00 :
sEXPR_W 5
b00110011 )
s0x6 3
sERR 4
b0011 >
17
b000000000000000010 <
b000000000000000010 $
sDIGIT 4
#120
0#
#130
1#
b00101001 )
s0x7 3
0(
sDIGIT 5
b001 ?
s0x3 @
b01111110 "h
b000000000000000010 $,
b00000010 "i
b000000000000000010 %
b0000000000000011 9
07
b1001 >
sEXPR_W 4
b00 $1
b0000000000000010 $2
#140
0#
#150
1#
b000 ?
1(
b0000000000000011 ;
sEXPR_W 5
b00000000 )
s0x8 3
sST0 4
b0000 >
b000000000000000011 <
b000000000000000011 $
#160
0#
#170
1#
11
s0x9 3
0(
sST0 5
b01111101 "h
b000000000000000011 $+
b00000011 "i
b000000000000000011 %
sERR 4
b0000000000000011 $2
#180
0#
#190
1#
1'
sGET $/
sERR 5
s0xa 3
#200
0#
#210
1#
s0xb 3
b01111110 "h
b00000010 "i
b000000000000000000 $+
b0000000000000011 %T
b01111111 $0
b000000000000000010 %
b0000000000000010 $2
#220
0#
#230
1#
b0000000000000010 %S
b01111110 $0
b01111111 "h
b00000001 "i
b000000000000000000 $,
s0xc 3
b110000000000101011 %
b0000000000101011 $2
b11 $1
#240
0#
#250
1#
s0xd 3
b10000000 "h
b00000000 "i
b000000000000000000 $-
b0000000000101011 /
1+
b0000000000000010 .
b0000000000000011 -
0'
sEVAL $/
b100000000000000000 %
1&
b10 $1
b0000000000000000 $2
#260
0#
#270
1#
b0000000000000101 ,
1*
s0xe 3
#280
0#
#290
1#
s0xf 3
b01111111 $0
sGET $/
0+
1'
#300
0#
#310
1#
sRET $/
0*
s0x10 3
#320
0#
#330
1#
s0x11 3
b0000000000000101 0
12
